\relax 
\@writefile{toc}{\contentsline {section}{\numberline {1}Introduction}{2}}
\@writefile{toc}{\contentsline {section}{\numberline {2}Code structure}{2}}
\@writefile{toc}{\contentsline {subsection}{\numberline {2.1}Pipeline}{2}}
\@writefile{toc}{\contentsline {subsection}{\numberline {2.2}Stage}{2}}
\@writefile{toc}{\contentsline {subsection}{\numberline {2.3}Project's implementation of the pipeline}{3}}
\@writefile{lof}{\contentsline {figure}{\numberline {1}{\ignorespaces Pipeline representation, and the StageAction struct. The type ptr<T> is just an alias for std::shared\_ptr<T>.}}{3}}
\@writefile{toc}{\contentsline {section}{\numberline {3}Image preprocessing}{3}}
\@writefile{lof}{\contentsline {figure}{\numberline {2}{\ignorespaces Examples of colour segmentation.}}{4}}
\@writefile{toc}{\contentsline {section}{\numberline {4}Sign detection}{4}}
\@writefile{toc}{\contentsline {section}{\numberline {5}Speed limit recognition}{4}}
\@writefile{lof}{\contentsline {figure}{\numberline {3}{\ignorespaces Examples of digit segmentation. The first two of them are correctly labelled as sink class, while 30 is labelled as 80. The other two are correctly classified too.}}{5}}
\@writefile{toc}{\contentsline {section}{\numberline {6}Output}{5}}
\@writefile{toc}{\contentsline {section}{\numberline {7}Final considerations}{5}}
\@writefile{lof}{\contentsline {figure}{\numberline {4}{\ignorespaces Examples of final results. Some errors are present.}}{6}}
